EESchema Schematic File Version 2
LIBS:mysensors-thermometer-rescue
LIBS:power
LIBS:device
LIBS:transistors
LIBS:conn
LIBS:linear
LIBS:regul
LIBS:74xx
LIBS:cmos4000
LIBS:adc-dac
LIBS:memory
LIBS:xilinx
LIBS:microcontrollers
LIBS:dsp
LIBS:microchip
LIBS:analog_switches
LIBS:motorola
LIBS:texas
LIBS:intel
LIBS:audio
LIBS:interface
LIBS:digital-audio
LIBS:philips
LIBS:display
LIBS:cypress
LIBS:siliconi
LIBS:opto
LIBS:atmel
LIBS:contrib
LIBS:valves
LIBS:arduino
LIBS:nrf24l01
LIBS:irm-05-5
LIBS:lm3940
LIBS:mysensors-thermometer-cache
EELAYER 25 0
EELAYER END
$Descr A4 11693 8268
encoding utf-8
Sheet 1 1
Title ""
Date ""
Rev ""
Comp ""
Comment1 ""
Comment2 ""
Comment3 ""
Comment4 ""
$EndDescr
$Comp
L arduino_nano U2
U 1 1 59907DA5
P 4450 3450
F 0 "U2" H 4750 2400 70  0000 C CNN
F 1 "arduino_nano" H 4750 2650 70  0000 C CNN
F 2 "library:Arduino-nano" H 4750 3400 60  0000 C CNN
F 3 "" H 4450 3450 60  0000 C CNN
	1    4450 3450
	1    0    0    -1  
$EndComp
$Comp
L NRF24L01 U4
U 1 1 59907F10
P 7650 3150
F 0 "U4" H 7650 3150 60  0000 C CNN
F 1 "NRF24L01" H 7675 3850 60  0000 C CNN
F 2 "library:NRF24L01" H 7650 3150 60  0001 C CNN
F 3 "" H 7650 3150 60  0000 C CNN
	1    7650 3150
	-1   0    0    1   
$EndComp
$Comp
L GND #PWR01
U 1 1 59907F81
P 8200 3900
F 0 "#PWR01" H 8200 3650 50  0001 C CNN
F 1 "GND" H 8200 3750 50  0000 C CNN
F 2 "" H 8200 3900 50  0000 C CNN
F 3 "" H 8200 3900 50  0000 C CNN
	1    8200 3900
	1    0    0    -1  
$EndComp
Wire Wire Line
	8100 3700 8200 3700
Wire Wire Line
	8200 3700 8200 3900
$Comp
L +3V3 #PWR02
U 1 1 59907FD5
P 6950 2200
F 0 "#PWR02" H 6950 2050 50  0001 C CNN
F 1 "+3V3" H 6950 2340 50  0000 C CNN
F 2 "" H 6950 2200 50  0000 C CNN
F 3 "" H 6950 2200 50  0000 C CNN
	1    6950 2200
	1    0    0    -1  
$EndComp
Wire Wire Line
	6950 2200 6950 3700
Wire Wire Line
	6950 3700 7150 3700
Wire Wire Line
	8100 3550 8300 3550
Wire Wire Line
	8300 3550 8300 2900
Wire Wire Line
	8300 2900 6750 2900
Wire Wire Line
	6750 2900 6750 3350
Wire Wire Line
	6750 3350 5800 3350
Wire Wire Line
	6800 3550 7150 3550
Wire Wire Line
	6800 3200 6800 3550
Wire Wire Line
	6800 3200 5800 3200
Wire Wire Line
	8250 3400 8100 3400
Wire Wire Line
	8250 2300 8250 3400
Wire Wire Line
	8250 2300 3600 2300
Wire Wire Line
	3600 2300 3600 2600
Wire Wire Line
	3600 2600 3750 2600
Wire Wire Line
	7150 3400 6850 3400
Wire Wire Line
	6850 3400 6850 2750
Wire Wire Line
	6850 2750 5800 2750
Wire Wire Line
	8100 3250 8200 3250
Wire Wire Line
	8200 3250 8200 2600
Wire Wire Line
	8200 2600 5800 2600
Wire Wire Line
	7150 3250 6900 3250
Wire Wire Line
	6900 3250 6900 4100
Wire Wire Line
	6900 4100 5800 4100
$Comp
L IRM-05-5-RESCUE-mysensors-thermometer U1
U 1 1 5990840B
P 3550 6250
F 0 "U1" H 3550 6500 60  0000 C CNN
F 1 "IRM-01-5" H 3300 6000 60  0000 L CNN
F 2 "library:IRM-01-XX" H 3550 6250 60  0001 C CNN
F 3 "" H 3550 6250 60  0000 C CNN
	1    3550 6250
	1    0    0    -1  
$EndComp
$Comp
L CONN_01X02 P2
U 1 1 59908412
P 2150 6200
F 0 "P2" H 2150 6350 50  0000 C CNN
F 1 "AC-230V" V 2250 6200 50  0000 C CNN
F 2 "Connect:bornier2" H 2150 6200 50  0001 C CNN
F 3 "" H 2150 6200 50  0000 C CNN
	1    2150 6200
	-1   0    0    -1  
$EndComp
$Comp
L GND #PWR03
U 1 1 59908427
P 3400 4650
F 0 "#PWR03" H 3400 4400 50  0001 C CNN
F 1 "GND" H 3400 4500 50  0000 C CNN
F 2 "" H 3400 4650 50  0000 C CNN
F 3 "" H 3400 4650 50  0000 C CNN
	1    3400 4650
	1    0    0    -1  
$EndComp
$Comp
L +5V #PWR04
U 1 1 5990842D
P 3400 4100
F 0 "#PWR04" H 3400 3950 50  0001 C CNN
F 1 "+5V" H 3400 4240 50  0000 C CNN
F 2 "" H 3400 4100 50  0000 C CNN
F 3 "" H 3400 4100 50  0000 C CNN
	1    3400 4100
	1    0    0    -1  
$EndComp
Wire Wire Line
	3400 4250 3750 4250
Wire Wire Line
	3400 4550 3750 4550
Wire Wire Line
	3400 4550 3400 4650
Wire Wire Line
	3400 4100 3400 4250
Wire Wire Line
	2500 6350 2900 6350
Wire Wire Line
	2350 6150 2900 6150
$Comp
L GND #PWR05
U 1 1 599084AC
P 4700 6500
F 0 "#PWR05" H 4700 6250 50  0001 C CNN
F 1 "GND" H 4700 6350 50  0000 C CNN
F 2 "" H 4700 6500 50  0000 C CNN
F 3 "" H 4700 6500 50  0000 C CNN
	1    4700 6500
	1    0    0    -1  
$EndComp
Wire Wire Line
	4200 6350 4700 6350
Wire Wire Line
	4200 6150 4700 6150
$Comp
L +5V #PWR06
U 1 1 5990858F
P 6200 1200
F 0 "#PWR06" H 6200 1050 50  0001 C CNN
F 1 "+5V" H 6200 1340 50  0000 C CNN
F 2 "" H 6200 1200 50  0000 C CNN
F 3 "" H 6200 1200 50  0000 C CNN
	1    6200 1200
	1    0    0    -1  
$EndComp
$Comp
L R R2
U 1 1 599085A8
P 5900 1550
F 0 "R2" V 5980 1550 50  0000 C CNN
F 1 "560" V 5900 1550 50  0000 C CNN
F 2 "Resistors_ThroughHole:Resistor_Horizontal_RM10mm" V 5830 1550 50  0001 C CNN
F 3 "" H 5900 1550 50  0000 C CNN
	1    5900 1550
	1    0    0    -1  
$EndComp
$Comp
L R R3
U 1 1 5990869F
P 6200 1550
F 0 "R3" V 6280 1550 50  0000 C CNN
F 1 "560" V 6200 1550 50  0000 C CNN
F 2 "Resistors_ThroughHole:Resistor_Horizontal_RM10mm" V 6130 1550 50  0001 C CNN
F 3 "" H 6200 1550 50  0000 C CNN
	1    6200 1550
	1    0    0    -1  
$EndComp
$Comp
L R R4
U 1 1 599086CB
P 6500 1550
F 0 "R4" V 6580 1550 50  0000 C CNN
F 1 "560" V 6500 1550 50  0000 C CNN
F 2 "Resistors_ThroughHole:Resistor_Horizontal_RM10mm" V 6430 1550 50  0001 C CNN
F 3 "" H 6500 1550 50  0000 C CNN
	1    6500 1550
	1    0    0    -1  
$EndComp
Wire Wire Line
	6500 1300 6500 1400
Wire Wire Line
	5900 1300 6500 1300
Wire Wire Line
	5900 1300 5900 1400
Wire Wire Line
	6200 1200 6200 1400
Connection ~ 6200 1300
$Comp
L Led_Small D1
U 1 1 599087BE
P 5900 1900
F 0 "D1" H 5850 2025 50  0000 L CNN
F 1 "GREEN_LED" H 5600 1800 50  0000 L CNN
F 2 "LEDs:LED-3MM" V 5900 1900 50  0001 C CNN
F 3 "" V 5900 1900 50  0000 C CNN
	1    5900 1900
	0    -1   -1   0   
$EndComp
$Comp
L Led_Small D2
U 1 1 5990884D
P 6200 1900
F 0 "D2" H 6150 2025 50  0000 L CNN
F 1 "ORANGE_LED" H 5900 1800 50  0000 L CNN
F 2 "LEDs:LED-3MM" V 6200 1900 50  0001 C CNN
F 3 "" V 6200 1900 50  0000 C CNN
	1    6200 1900
	0    -1   -1   0   
$EndComp
$Comp
L Led_Small D3
U 1 1 59908882
P 6500 1900
F 0 "D3" H 6450 2025 50  0000 L CNN
F 1 "RED_LED" H 6325 1800 50  0000 L CNN
F 2 "LEDs:LED-3MM" V 6500 1900 50  0001 C CNN
F 3 "" V 6500 1900 50  0000 C CNN
	1    6500 1900
	0    -1   -1   0   
$EndComp
Wire Wire Line
	6500 1800 6500 1700
Wire Wire Line
	6200 1700 6200 1800
Wire Wire Line
	5900 1700 5900 1800
Wire Wire Line
	5900 2000 5900 3500
Wire Wire Line
	5900 3500 5800 3500
Wire Wire Line
	5800 3650 6200 3650
Wire Wire Line
	6200 3650 6200 2000
Wire Wire Line
	6500 2000 6500 3800
Wire Wire Line
	6500 3800 5800 3800
$Comp
L CONN_01X03 P1
U 1 1 5990877E
P 2150 5300
F 0 "P1" H 2150 5500 50  0000 C CNN
F 1 "DS18B20" V 2250 5300 50  0000 C CNN
F 2 "Pin_Headers:Pin_Header_Straight_1x03" H 2150 5300 50  0001 C CNN
F 3 "" H 2150 5300 50  0000 C CNN
	1    2150 5300
	-1   0    0    1   
$EndComp
$Comp
L +5V #PWR07
U 1 1 59908786
P 2700 4950
F 0 "#PWR07" H 2700 4800 50  0001 C CNN
F 1 "+5V" H 2700 5090 50  0000 C CNN
F 2 "" H 2700 4950 50  0000 C CNN
F 3 "" H 2700 4950 50  0000 C CNN
	1    2700 4950
	1    0    0    -1  
$EndComp
$Comp
L GND #PWR08
U 1 1 5990878C
P 2700 5700
F 0 "#PWR08" H 2700 5450 50  0001 C CNN
F 1 "GND" H 2700 5550 50  0000 C CNN
F 2 "" H 2700 5700 50  0000 C CNN
F 3 "" H 2700 5700 50  0000 C CNN
	1    2700 5700
	1    0    0    -1  
$EndComp
Wire Wire Line
	2350 5200 6000 5200
Wire Wire Line
	2350 5300 2900 5300
Wire Wire Line
	2700 5300 2700 4950
Wire Wire Line
	2350 5400 2700 5400
Wire Wire Line
	2700 5400 2700 5700
$Comp
L R R1
U 1 1 599087B1
P 3050 5300
F 0 "R1" V 3130 5300 50  0000 C CNN
F 1 "4.7K" V 3050 5300 50  0000 C CNN
F 2 "Resistors_ThroughHole:Resistor_Horizontal_RM10mm" V 2980 5300 50  0001 C CNN
F 3 "" H 3050 5300 50  0000 C CNN
	1    3050 5300
	0    1    1    0   
$EndComp
Connection ~ 2700 5300
Wire Wire Line
	3200 5300 3300 5300
Wire Wire Line
	3300 5300 3300 5200
Connection ~ 3300 5200
Wire Wire Line
	2500 6350 2500 6250
Wire Wire Line
	2500 6250 2350 6250
Wire Wire Line
	4700 6350 4700 6500
Wire Wire Line
	6000 5200 6000 3950
Wire Wire Line
	6000 3950 5800 3950
$Comp
L +5V #PWR09
U 1 1 59908DF5
P 4700 6000
F 0 "#PWR09" H 4700 5850 50  0001 C CNN
F 1 "+5V" H 4700 6140 50  0000 C CNN
F 2 "" H 4700 6000 50  0000 C CNN
F 3 "" H 4700 6000 50  0000 C CNN
	1    4700 6000
	1    0    0    -1  
$EndComp
$Comp
L +3V3 #PWR010
U 1 1 599181B2
P 3400 2550
F 0 "#PWR010" H 3400 2400 50  0001 C CNN
F 1 "+3V3" H 3400 2690 50  0000 C CNN
F 2 "" H 3400 2550 50  0000 C CNN
F 3 "" H 3400 2550 50  0000 C CNN
	1    3400 2550
	1    0    0    -1  
$EndComp
Wire Wire Line
	3400 2550 3400 2900
Wire Wire Line
	3400 2750 3750 2750
$Comp
L C C1
U 1 1 599181BA
P 3400 3050
F 0 "C1" H 3425 3150 50  0000 L CNN
F 1 "100nF" H 3425 2950 50  0000 L CNN
F 2 "Capacitors_ThroughHole:C_Rect_L7_W2_P5" H 3438 2900 50  0001 C CNN
F 3 "" H 3400 3050 50  0000 C CNN
	1    3400 3050
	1    0    0    -1  
$EndComp
Connection ~ 3400 2750
$Comp
L GND #PWR011
U 1 1 599181C2
P 3400 3400
F 0 "#PWR011" H 3400 3150 50  0001 C CNN
F 1 "GND" H 3400 3250 50  0000 C CNN
F 2 "" H 3400 3400 50  0000 C CNN
F 3 "" H 3400 3400 50  0000 C CNN
	1    3400 3400
	1    0    0    -1  
$EndComp
Wire Wire Line
	3400 3200 3400 3400
$Comp
L C C2
U 1 1 599184ED
P 3200 4400
F 0 "C2" H 3225 4500 50  0000 L CNN
F 1 "100nF" H 3225 4300 50  0000 L CNN
F 2 "Capacitors_ThroughHole:C_Rect_L7_W2_P5" H 3238 4250 50  0001 C CNN
F 3 "" H 3200 4400 50  0000 C CNN
	1    3200 4400
	1    0    0    -1  
$EndComp
Wire Wire Line
	3200 4250 3200 4200
Wire Wire Line
	3200 4200 3400 4200
Connection ~ 3400 4200
Wire Wire Line
	3400 4600 3200 4600
Wire Wire Line
	3200 4600 3200 4550
Connection ~ 3400 4600
Wire Wire Line
	4700 6150 4700 6000
$EndSCHEMATC
