(export (version D)
  (design
    (source /mnt/sdc1/riton/kicad/domotics/mysensors-thermometer/mysensors-thermometer.sch)
    (date "dim. 03 sept. 2017 01:01:08 CEST")
    (tool "Eeschema 4.0.2+dfsg1-stable")
    (sheet (number 1) (name /) (tstamps /)
      (title_block
        (title)
        (company)
        (rev)
        (date)
        (source mysensors-thermometer.sch)
        (comment (number 1) (value ""))
        (comment (number 2) (value ""))
        (comment (number 3) (value ""))
        (comment (number 4) (value "")))))
  (components
    (comp (ref U2)
      (value arduino_nano)
      (footprint library:Arduino-nano)
      (libsource (lib arduino) (part arduino_nano))
      (sheetpath (names /) (tstamps /))
      (tstamp 59907DA5))
    (comp (ref U4)
      (value NRF24L01)
      (footprint library:NRF24L01)
      (libsource (lib nrf24l01) (part NRF24L01))
      (sheetpath (names /) (tstamps /))
      (tstamp 59907F10))
    (comp (ref U1)
      (value IRM-01-5)
      (footprint library:IRM-01-XX)
      (libsource (lib irm-05-5) (part IRM-05-5))
      (sheetpath (names /) (tstamps /))
      (tstamp 5990840B))
    (comp (ref P2)
      (value AC-230V)
      (footprint Connect:bornier2)
      (libsource (lib conn) (part CONN_01X02))
      (sheetpath (names /) (tstamps /))
      (tstamp 59908412))
    (comp (ref R2)
      (value 560)
      (footprint Resistors_ThroughHole:Resistor_Horizontal_RM10mm)
      (libsource (lib device) (part R))
      (sheetpath (names /) (tstamps /))
      (tstamp 599085A8))
    (comp (ref R3)
      (value 560)
      (footprint Resistors_ThroughHole:Resistor_Horizontal_RM10mm)
      (libsource (lib device) (part R))
      (sheetpath (names /) (tstamps /))
      (tstamp 5990869F))
    (comp (ref R4)
      (value 560)
      (footprint Resistors_ThroughHole:Resistor_Horizontal_RM10mm)
      (libsource (lib device) (part R))
      (sheetpath (names /) (tstamps /))
      (tstamp 599086CB))
    (comp (ref D1)
      (value GREEN_LED)
      (footprint LEDs:LED-3MM)
      (libsource (lib device) (part Led_Small))
      (sheetpath (names /) (tstamps /))
      (tstamp 599087BE))
    (comp (ref D2)
      (value ORANGE_LED)
      (footprint LEDs:LED-3MM)
      (libsource (lib device) (part Led_Small))
      (sheetpath (names /) (tstamps /))
      (tstamp 5990884D))
    (comp (ref D3)
      (value RED_LED)
      (footprint LEDs:LED-3MM)
      (libsource (lib device) (part Led_Small))
      (sheetpath (names /) (tstamps /))
      (tstamp 59908882))
    (comp (ref P1)
      (value DS18B20)
      (footprint Pin_Headers:Pin_Header_Straight_1x03)
      (libsource (lib conn) (part CONN_01X03))
      (sheetpath (names /) (tstamps /))
      (tstamp 5990877E))
    (comp (ref R1)
      (value 4.7K)
      (footprint Resistors_ThroughHole:Resistor_Horizontal_RM10mm)
      (libsource (lib device) (part R))
      (sheetpath (names /) (tstamps /))
      (tstamp 599087B1))
    (comp (ref C1)
      (value 100nF)
      (footprint Capacitors_ThroughHole:C_Rect_L7_W2_P5)
      (libsource (lib device) (part C))
      (sheetpath (names /) (tstamps /))
      (tstamp 599181BA))
    (comp (ref C2)
      (value 100nF)
      (footprint Capacitors_ThroughHole:C_Rect_L7_W2_P5)
      (libsource (lib device) (part C))
      (sheetpath (names /) (tstamps /))
      (tstamp 599184ED)))
  (libparts
    (libpart (lib device) (part C)
      (description "Unpolarized capacitor")
      (footprints
        (fp C?)
        (fp C_????_*)
        (fp C_????)
        (fp SMD*_c)
        (fp Capacitor*))
      (fields
        (field (name Reference) C)
        (field (name Value) C))
      (pins
        (pin (num 1) (name ~) (type passive))
        (pin (num 2) (name ~) (type passive))))
    (libpart (lib conn) (part CONN_01X02)
      (description "Connector 01x02")
      (footprints
        (fp Pin_Header_Straight_1X02)
        (fp Pin_Header_Angled_1X02)
        (fp Socket_Strip_Straight_1X02)
        (fp Socket_Strip_Angled_1X02))
      (fields
        (field (name Reference) P)
        (field (name Value) CONN_01X02))
      (pins
        (pin (num 1) (name P1) (type passive))
        (pin (num 2) (name P2) (type passive))))
    (libpart (lib conn) (part CONN_01X03)
      (description "Connector 01x03")
      (footprints
        (fp Pin_Header_Straight_1X03)
        (fp Pin_Header_Angled_1X03)
        (fp Socket_Strip_Straight_1X03)
        (fp Socket_Strip_Angled_1X03))
      (fields
        (field (name Reference) P)
        (field (name Value) CONN_01X03))
      (pins
        (pin (num 1) (name P1) (type passive))
        (pin (num 2) (name P2) (type passive))
        (pin (num 3) (name P3) (type passive))))
    (libpart (lib irm-05-5) (part IRM-05-5)
      (description "AC/DC power supply")
      (fields
        (field (name Reference) U)
        (field (name Value) IRM-05-5))
      (pins
        (pin (num 1) (name AC/N) (type input))
        (pin (num 2) (name AC/L) (type input))
        (pin (num 3) (name -Vout) (type output))
        (pin (num 4) (name +Vout) (type output))))
    (libpart (lib device) (part Led_Small)
      (description Led)
      (footprints
        (fp CP*)
        (fp SM*))
      (fields
        (field (name Reference) D)
        (field (name Value) Led_Small))
      (pins
        (pin (num 1) (name K) (type passive))
        (pin (num 2) (name A) (type passive))))
    (libpart (lib nrf24l01) (part NRF24L01)
      (fields
        (field (name Reference) U)
        (field (name Value) NRF24L01))
      (pins
        (pin (num 1) (name GND) (type input))
        (pin (num 2) (name VCC) (type input))
        (pin (num 3) (name CE) (type input))
        (pin (num 4) (name CSN) (type input))
        (pin (num 5) (name SCK) (type input))
        (pin (num 6) (name MOSI) (type input))
        (pin (num 7) (name MISO) (type input))
        (pin (num 8) (name IRQ) (type input))))
    (libpart (lib device) (part R)
      (description Resistor)
      (footprints
        (fp R_*)
        (fp Resistor_*))
      (fields
        (field (name Reference) R)
        (field (name Value) R))
      (pins
        (pin (num 1) (name ~) (type passive))
        (pin (num 2) (name ~) (type passive))))
    (libpart (lib arduino) (part arduino_nano)
      (fields
        (field (name Reference) U)
        (field (name Value) arduino_nano)
        (field (name Footprint) DIL30))
      (pins
        (pin (num 1) (name "(led)(SCK)D13") (type input))
        (pin (num 2) (name 3V3) (type power_out))
        (pin (num 3) (name Aref) (type input))
        (pin (num 4) (name A0) (type BiDi))
        (pin (num 5) (name A1) (type BiDi))
        (pin (num 6) (name A2) (type BiDi))
        (pin (num 7) (name A3) (type BiDi))
        (pin (num 8) (name "A4(SDA)") (type BiDi))
        (pin (num 9) (name "A5(SCL)") (type BiDi))
        (pin (num 10) (name A6) (type BiDi))
        (pin (num 11) (name A7) (type BiDi))
        (pin (num 12) (name 5V) (type power_out))
        (pin (num 13) (name RST) (type input))
        (pin (num 14) (name GND) (type power_in))
        (pin (num 15) (name Vin) (type power_in))
        (pin (num 16) (name "(TX)D0") (type BiDi))
        (pin (num 17) (name "(RX)D1") (type BiDi))
        (pin (num 18) (name RST) (type input))
        (pin (num 19) (name GND) (type power_in))
        (pin (num 20) (name "(int2)D2") (type BiDi))
        (pin (num 21) (name "(int3)#D3") (type BiDi))
        (pin (num 22) (name D4) (type BiDi))
        (pin (num 23) (name "#D5") (type BiDi))
        (pin (num 24) (name "#D6") (type BiDi))
        (pin (num 25) (name D7) (type BiDi))
        (pin (num 26) (name D8) (type BiDi))
        (pin (num 27) (name "#D9") (type BiDi))
        (pin (num 28) (name "(SS)#D10") (type BiDi))
        (pin (num 29) (name "(MOSI)#D11") (type BiDi))
        (pin (num 30) (name "(MISO)D12") (type BiDi)))))
  (libraries
    (library (logical device)
      (uri /usr/share/kicad/library/device.lib))
    (library (logical conn)
      (uri /usr/share/kicad/library/conn.lib))
    (library (logical nrf24l01)
      (uri /home/riton/kicad/library/nrf24l01.lib))
    (library (logical arduino)
      (uri /home/riton/kicad/library/arduino.lib))
    (library (logical irm-05-5)
      (uri /mnt/sdc1/riton/kicad/library/irm-05-5.lib)))
  (nets
    (net (code 1) (name "Net-(D1-Pad1)")
      (node (ref D1) (pin 1))
      (node (ref U2) (pin 24)))
    (net (code 2) (name "Net-(D1-Pad2)")
      (node (ref R2) (pin 2))
      (node (ref D1) (pin 2)))
    (net (code 3) (name "Net-(D2-Pad2)")
      (node (ref D2) (pin 2))
      (node (ref R3) (pin 2)))
    (net (code 4) (name "Net-(D3-Pad1)")
      (node (ref D3) (pin 1))
      (node (ref U2) (pin 22)))
    (net (code 5) (name "Net-(D3-Pad2)")
      (node (ref D3) (pin 2))
      (node (ref R4) (pin 2)))
    (net (code 6) (name "Net-(D2-Pad1)")
      (node (ref U2) (pin 23))
      (node (ref D2) (pin 1)))
    (net (code 7) (name "Net-(P2-Pad2)")
      (node (ref U1) (pin 2))
      (node (ref P2) (pin 2)))
    (net (code 8) (name "Net-(P2-Pad1)")
      (node (ref U1) (pin 1))
      (node (ref P2) (pin 1)))
    (net (code 9) (name GND)
      (node (ref C2) (pin 2))
      (node (ref U4) (pin 1))
      (node (ref U2) (pin 14))
      (node (ref U1) (pin 3))
      (node (ref C1) (pin 2))
      (node (ref P1) (pin 1)))
    (net (code 10) (name +5V)
      (node (ref R4) (pin 1))
      (node (ref P1) (pin 2))
      (node (ref R3) (pin 1))
      (node (ref R2) (pin 1))
      (node (ref U1) (pin 4))
      (node (ref U2) (pin 12))
      (node (ref R1) (pin 2))
      (node (ref C2) (pin 1)))
    (net (code 11) (name +3V3)
      (node (ref C1) (pin 1))
      (node (ref U2) (pin 2))
      (node (ref U4) (pin 2)))
    (net (code 12) (name "Net-(P1-Pad3)")
      (node (ref R1) (pin 1))
      (node (ref U2) (pin 21))
      (node (ref P1) (pin 3)))
    (net (code 13) (name "Net-(U2-Pad16)")
      (node (ref U2) (pin 16)))
    (net (code 14) (name "Net-(U2-Pad17)")
      (node (ref U2) (pin 17)))
    (net (code 15) (name "Net-(U2-Pad27)")
      (node (ref U2) (pin 27)))
    (net (code 16) (name "Net-(U2-Pad18)")
      (node (ref U2) (pin 18)))
    (net (code 17) (name "Net-(U2-Pad28)")
      (node (ref U2) (pin 28)))
    (net (code 18) (name "Net-(U2-Pad19)")
      (node (ref U2) (pin 19)))
    (net (code 19) (name "Net-(U2-Pad29)")
      (node (ref U4) (pin 6))
      (node (ref U2) (pin 29)))
    (net (code 20) (name "Net-(U2-Pad25)")
      (node (ref U4) (pin 3))
      (node (ref U2) (pin 25)))
    (net (code 21) (name "Net-(U2-Pad26)")
      (node (ref U2) (pin 26))
      (node (ref U4) (pin 4)))
    (net (code 22) (name "Net-(U2-Pad1)")
      (node (ref U2) (pin 1))
      (node (ref U4) (pin 5)))
    (net (code 23) (name "Net-(U2-Pad30)")
      (node (ref U4) (pin 7))
      (node (ref U2) (pin 30)))
    (net (code 24) (name "Net-(U2-Pad20)")
      (node (ref U4) (pin 8))
      (node (ref U2) (pin 20)))
    (net (code 25) (name "Net-(U2-Pad9)")
      (node (ref U2) (pin 9)))
    (net (code 26) (name "Net-(U2-Pad15)")
      (node (ref U2) (pin 15)))
    (net (code 27) (name "Net-(U2-Pad3)")
      (node (ref U2) (pin 3)))
    (net (code 28) (name "Net-(U2-Pad4)")
      (node (ref U2) (pin 4)))
    (net (code 29) (name "Net-(U2-Pad5)")
      (node (ref U2) (pin 5)))
    (net (code 30) (name "Net-(U2-Pad6)")
      (node (ref U2) (pin 6)))
    (net (code 31) (name "Net-(U2-Pad7)")
      (node (ref U2) (pin 7)))
    (net (code 32) (name "Net-(U2-Pad8)")
      (node (ref U2) (pin 8)))
    (net (code 33) (name "Net-(U2-Pad10)")
      (node (ref U2) (pin 10)))
    (net (code 34) (name "Net-(U2-Pad11)")
      (node (ref U2) (pin 11)))
    (net (code 35) (name "Net-(U2-Pad13)")
      (node (ref U2) (pin 13)))))